@startuml
User -> DisplayFragment: Click plus button
DisplayFragment -> ReportFragment
User -> ReportFragment: Press a category button
ReportFragment -> Report
ReportFragment -> Firebase: Report
ReportFragment -> ReportedFragment

User -> ReportedFragment: Press "Return to Map" button


@enduml